…
    # Comment
  x %>% html_elements(".review-text-content span") %>%
    html_text() %>% .[. != ""] -> reviews$Text[(1+(i-1)*10):(i*10)]
}
```

``` r
db = as_tibble(reviews)
db
```

    ## # A tibble: 290 x 5
    ##    Product   Time                                     User           Score Text 
    ##    <chr>     <chr>                                    <chr>          <chr> <chr>
    ##  1 Pesto Jar Recensito in Italia il 11 febbraio 2021  /gp/profile/a~ 3,0 ~ "Alm~
    ##  2 Pesto Jar Recensito in Italia il 6 novembre 2020   /gp/profile/a~ 5,0 ~ "E d~
    ##  3 Pesto Jar Recensito in Italia il 26 novembre 2021  /gp/profile/a~ 4,0 ~ "Un ~
    ##  4 Pesto Jar Recensito in Italia il 12 luglio 2021    /gp/profile/a~ 5,0 ~ "Amo~
    ##  5 Pesto Jar Recensito in Italia il 11 settembre 2019 /gp/profile/a~ 5,0 ~ "L'h~
    ##  6 Pesto Jar Recensito in Italia il 12 gennaio 2021   /gp/profile/a~ 5,0 ~ "La ~
    ##  7 Pesto Jar Recensito in Italia il 7 gennaio 2022    /gp/profile/a~ 4,0 ~ "Ess~
    ##  8 Pesto Jar Recensito in Italia il 7 gennaio 2021    /gp/profile/a~ 5,0 ~ "Son~
    ##  9 Pesto Jar Recensito in Italia il 13 novembre 2021  /gp/profile/a~ 2,0 ~ "Del~
    ## 10 Pesto Jar Recensito in Italia il 10 ottobre 2021   /gp/profile/a~ 5,0 ~ "Acq~
    ## # ... with 280 more rows
…
